Modelado Ordenado con R - 13 Búsqueda De Cuadrícula
…
Esta salida indica que los objetos de parámetros están completos e imprime sus rangos predeterminados. Estos valores se utilizarán para demostrar cómo crear diferentes tipos de cuadrículas de parámetros.

Cuadrículas regulares

Las cuadrículas regulares son combinaciones de conjuntos separados de valores de parámetros. Primero, el usuario crea un conjunto distinto de valores para cada parámetro. El número de valores posibles no tiene por qué ser el mismo para cada parámetro. La función tidyr crossing() es una forma de crear una cuadrícula regular:

crossing(
  hidden_units = 1:3,
  penalty = c(0.0, 0.1),
  epochs = c(100, 200)
)
## # A tibble: 12 × 3
##   hidden_units penalty epochs
##          <int>   <dbl>  <dbl>
## 1            1     0      100
## 2            1     0      200
## 3            1     0.1    100
## 4            1     0.1    200
## 5            2     0      100
## 6            2     0      200
## # ℹ 6 more rows

El objeto de parámetro conoce los rangos de los parámetros. El paquete dials contiene un conjunto de funciones grid_*() que toman el objeto parámetro como entrada para producir diferentes tipos de cuadrículas. Por ejemplo:

grid_regular(mlp_param, levels = 2)
## # A tibble: 8 × 3
##   hidden_units      penalty epochs
##          <int>        <dbl>  <int>
## 1            1 0.0000000001     10
## 2           10 0.0000000001     10
## 3            1 1                10
## 4           10 1                10
## 5            1 0.0000000001   1000
## 6           10 0.0000000001   1000
## # ℹ 2 more rows

El argumento levels es el número de niveles por parámetro a crear. También puede tomar un vector de valores con nombre:

mlp_param %>% 
  grid_regular(levels = c(hidden_units = 3, penalty = 2, epochs = 2))
## # A tibble: 12 × 3
##   hidden_units      penalty epochs
##          <int>        <dbl>  <int>
## 1            1 0.0000000001     10
## 2            5 0.0000000001     10
## 3           10 0.0000000001     10
## 4            1 1                10
## 5            5 1                10
## 6           10 1                10
## # ℹ 6 more rows
…
Para comenzar, evaluemos una cuadrícula regular con tres niveles en los remuestreos:

roc_res <- metric_set(roc_auc)
set.seed(1305)
mlp_reg_tune <-
  mlp_wflow %>%
  tune_grid(
    cell_folds,
    grid = mlp_param %>% grid_regular(levels = 3),
    metrics = roc_res
  )
mlp_reg_tune
## # Tuning results
## # 10-fold cross-validation 
## # A tibble: 10 × 4
##   splits             id     .metrics          .notes          
##   <list>             <chr>  <list>            <list>          
## 1 <split [1817/202]> Fold01 <tibble [81 × 8]> <tibble [0 × 3]>
## 2 <split [1817/202]> Fold02 <tibble [81 × 8]> <tibble [0 × 3]>
## 3 <split [1817/202]> Fold03 <tibble [81 × 8]> <tibble [0 × 3]>
## 4 <split [1817/202]> Fold04 <tibble [81 × 8]> <tibble [0 × 3]>
## 5 <split [1817/202]> Fold05 <tibble [81 × 8]> <tibble [0 × 3]>
## 6 <split [1817/202]> Fold06 <tibble [81 × 8]> <tibble [0 × 3]>
## # ℹ 4 more rows
…
set.seed(1306)
mlp_sfd_tune <-
  mlp_wflow %>%
  tune_grid(
    cell_folds,
    grid = 20,
    # Pase el objeto de parámetro para usar el rango apropiado: 
    param_info = mlp_param,
    metrics = roc_res
  )
mlp_sfd_tune
## # Tuning results
## # 10-fold cross-validation 
## # A tibble: 10 × 4
##   splits             id     .metrics          .notes          
##   <list>             <chr>  <list>            <list>          
## 1 <split [1817/202]> Fold01 <tibble [20 × 8]> <tibble [0 × 3]>
## 2 <split [1817/202]> Fold02 <tibble [20 × 8]> <tibble [0 × 3]>
## 3 <split [1817/202]> Fold03 <tibble [20 × 8]> <tibble [0 × 3]>
## 4 <split [1817/202]> Fold04 <tibble [20 × 8]> <tibble [0 × 3]>
## 5 <split [1817/202]> Fold05 <tibble [20 × 8]> <tibble [0 × 3]>
## 6 <split [1817/202]> Fold06 <tibble [20 × 8]> <tibble [0 × 3]>
## # ℹ 4 more rows
…
