Modelado Ordenado con R - 15 Probando Muchos Modelos
…
La columna option ahora contiene todas las opciones que usamos en la llamada workflow_map(). Esto hace que nuestros resultados sean reproducibles. En las columnas result, las notaciones “tune[+]” y “rsmp[+]” significan que el objeto no tuvo problemas. Un valor como “tune[x]” ocurre si todos los modelos fallaron por algún motivo.

Hay algunas funciones convenientes para examinar resultados, como grid_results. La función rank_results() ordenará los modelos según alguna métrica de rendimiento. De forma predeterminada, utiliza la primera métrica del conjunto de métricas (RMSE en este caso). Vamos a filter() para mirar solo RMSE:

grid_results %>% 
   rank_results() %>% 
   filter(.metric == "rmse") %>% 
   select(model, .config, rmse = mean, rank)
## # A tibble: 252 × 4
##   model      .config                rmse  rank
##   <chr>      <chr>                 <dbl> <int>
## 1 boost_tree Preprocessor1_Model04  4.24     1
## 2 boost_tree Preprocessor1_Model13  4.30     2
## 3 boost_tree Preprocessor1_Model14  4.33     3
## 4 boost_tree Preprocessor1_Model06  4.34     4
## 5 boost_tree Preprocessor1_Model16  4.46     5
## 6 boost_tree Preprocessor1_Model15  4.46     6
## # ℹ 246 more rows
…
