Modelado Ordenado con R - 19 ¿Cuándo Debería Confiar En Sus Predicciones?
…
set.seed(1902)
lm_fit <- fit(lm_wflow, data = Chicago_train)

¿Qué tan bien encajan los datos en el conjunto de prueba? Podemos predecit() para que el conjunto de pruebas encuentre tanto predicciones como intervalos de predicción:

res_test <-
  predict(lm_fit, Chicago_test) %>%
  bind_cols(
    predict(lm_fit, Chicago_test, type = "pred_int"),
    Chicago_test
  )

res_test %>% select(date, ridership, starts_with(".pred"))
## # A tibble: 14 × 5
##   date       ridership .pred .pred_lower .pred_upper
##   <date>         <dbl> <dbl>       <dbl>       <dbl>
## 1 2016-08-15     20.6  20.3        16.2         24.5
## 2 2016-08-16     21.0  21.3        17.1         25.4
## 3 2016-08-17     21.0  21.4        17.3         25.6
## 4 2016-08-18     21.3  21.4        17.3         25.5
## 5 2016-08-19     20.4  20.9        16.7         25.0
## 6 2016-08-20      6.22  7.52        3.34        11.7
## # ℹ 8 more rows
…
Figura 19.4: Dos semanas de predicciones de 2016 para los datos de Chicago junto con intervalos de predicción del 95%

Dada la escala del número de usuarios, estos resultados parecen particularmente buenos para un modelo tan simple. Si se hubiera implementado este modelo, ¿qué tan bien habría funcionado unos años más tarde, en junio de 2020? El modelo realiza con éxito una predicción, como casi siempre lo hace un modelo predictivo cuando se le dan datos de entrada:

res_2020 <-
  predict(lm_fit, Chicago_2020) %>%
  bind_cols(
    predict(lm_fit, Chicago_2020, type = "pred_int"),
    Chicago_2020
  ) 

res_2020 %>% select(date, contains(".pred"))
## # A tibble: 14 × 4
##   date       .pred .pred_lower .pred_upper
##   <date>     <dbl>       <dbl>       <dbl>
## 1 2020-06-01 20.1        15.9         24.3
## 2 2020-06-02 21.4        17.2         25.6
## 3 2020-06-03 21.5        17.3         25.6
## 4 2020-06-04 21.3        17.1         25.4
## 5 2020-06-05 20.7        16.6         24.9
## 6 2020-06-06  9.04        4.88        13.2
## # ℹ 8 more rows

Los intervalos de predicción tienen aproximadamente el mismo ancho, aunque estos datos están mucho más allá del período de tiempo del conjunto de entrenamiento original. Sin embargo, dada la pandemia mundial en 2020, el desempeño según estos datos es pésimo:

res_2020 %>% select(date, ridership, starts_with(".pred"))
## # A tibble: 14 × 5
##   date       ridership .pred .pred_lower .pred_upper
##   <date>         <dbl> <dbl>       <dbl>       <dbl>
## 1 2020-06-01     0.002 20.1        15.9         24.3
## 2 2020-06-02     0.005 21.4        17.2         25.6
## 3 2020-06-03     0.566 21.5        17.3         25.6
## 4 2020-06-04     1.66  21.3        17.1         25.4
## 5 2020-06-05     1.95  20.7        16.6         24.9
## 6 2020-06-06     1.08   9.04        4.88        13.2
## # ℹ 8 more rows
…
Figura 19.8: Los resultados de usar el método autoplot() en un objeto aplicable

El eje x muestra los valores de la distancia y el eje y muestra los percentiles de la distribución. Por ejemplo, la mitad de las muestras del conjunto de entrenamiento tenían distancias menores que 3.7.

Para calcular los percentiles de datos nuevos, la función score() funciona de la misma manera que predict():

score(pca_stat, Chicago_test) %>% select(starts_with("distance"))
## # A tibble: 14 × 2
##   distance distance_pctl
##      <dbl>         <dbl>
## 1     4.88          66.7
## 2     5.21          71.4
## 3     5.19          71.1
## 4     5.00          68.5
## 5     4.36          59.3
## 6     4.10          55.2
## # ℹ 8 more rows

Estos parecen bastante razonables. Para los datos de 2020:

score(pca_stat, Chicago_2020) %>% select(starts_with("distance"))
## # A tibble: 14 × 2
##   distance distance_pctl
##      <dbl>         <dbl>
## 1     9.39          99.8
## 2     9.40          99.8
## 3     9.30          99.7
## 4     9.30          99.7
## 5     9.29          99.7
## 6    10.1            1  
## # ℹ 8 more rows
…
