Modelado Ordenado con R - 21 Análisis Inferencial
…
A partir de aquí, calculamos un intervalo de confianza para esta media creando la distribución de arranque mediante generate(); se calcula la misma estadística para cada versión remuestreada de los datos:

set.seed(2101)
bootstrapped <- 
  bioChemists %>%
  specify(art ~ fem)  %>%
  generate(reps = 2000, type = "bootstrap") %>%
  calculate(stat = "diff in means", order = c("Men", "Women"))
bootstrapped
## Response: art (numeric)
## Explanatory: fem (factor)
## # A tibble: 2,000 × 2
##   replicate  stat
##       <int> <dbl>
## 1         1 0.467
## 2         2 0.107
## 3         3 0.467
## 4         4 0.308
## 5         5 0.369
## 6         6 0.428
## # ℹ 1,994 more rows
…
Si requerimos un valor p, el paquete infer puede calcular el valor mediante una prueba de permutación, que se muestra en el siguiente código. La sintaxis es muy similar al código de arranque que usamos anteriormente. Agregamos un verbo hypothesize() para indicar el tipo de suposición a probar y la llamada generate() contiene una opción para mezclar los datos.

set.seed(2102)
permuted <- 
  bioChemists %>%
  specify(art ~ fem)  %>%
  hypothesize(null = "independence") %>%
  generate(reps = 2000, type = "permute") %>%
  calculate(stat = "diff in means", order = c("Men", "Women"))
permuted
## Response: art (numeric)
## Explanatory: fem (factor)
## Null Hypothesis: independence
## # A tibble: 2,000 × 2
##   replicate     stat
##       <int>    <dbl>
## 1         1  0.201  
## 2         2 -0.133  
## 3         3  0.109  
## 4         4 -0.195  
## 5         5 -0.00128
## 6         6 -0.102  
## # ℹ 1,994 more rows
…
Primero, creamos los 4000 ajustes del modelo:

zip_form <- art ~ fem + mar + kid5 + ment | fem + mar + kid5 + phd + ment
glm_form <- art ~ fem + mar + kid5 + ment

set.seed(2104)
bootstrap_models <-
  bootstraps(bioChemists, times = 2000, apparent = TRUE) %>%
  mutate(
    glm = map(splits, ~ fit(log_lin_spec,       glm_form, data = analysis(.x))),
    zip = map(splits, ~ fit(zero_inflated_spec, zip_form, data = analysis(.x)))
  )
bootstrap_models
## # Bootstrap sampling with apparent sample 
## # A tibble: 2,001 × 4
##   splits            id            glm      zip     
##   <list>            <chr>         <list>   <list>  
## 1 <split [915/355]> Bootstrap0001 <fit[+]> <fit[+]>
## 2 <split [915/333]> Bootstrap0002 <fit[+]> <fit[+]>
## 3 <split [915/337]> Bootstrap0003 <fit[+]> <fit[+]>
## 4 <split [915/344]> Bootstrap0004 <fit[+]> <fit[+]>
## 5 <split [915/351]> Bootstrap0005 <fit[+]> <fit[+]>
## 6 <split [915/354]> Bootstrap0006 <fit[+]> <fit[+]>
## # ℹ 1,995 more rows
…
