Modelado Ordenado con R - 8 Feature Engineering with recipes
…
lm_wflow <- 
  workflow() %>% 
  add_model(lm_model) %>% 
  add_recipe(ames_rec)

lm_fit <- fit(lm_wflow, ames_train)

The tidy() method can be called again along with the id identifier we specified to get our results for applying step_other():

estimated_recipe <- 
  lm_fit %>% 
  extract_recipe(estimated = TRUE)

tidy(estimated_recipe, id = "my_id")
## # A tibble: 22 × 3
##   terms        retained           id   
##   <chr>        <chr>              <chr>
## 1 Neighborhood North_Ames         my_id
## 2 Neighborhood College_Creek      my_id
## 3 Neighborhood Old_Town           my_id
## 4 Neighborhood Edwards            my_id
## 5 Neighborhood Somerset           my_id
## 6 Neighborhood Northridge_Heights my_id
## # ℹ 16 more rows

The tidy() results we see here for using step_other() show which factor levels were retained, i.e., not added to the new “other” category.

The tidy() method can be called with the number identifier as well, if we know which step in the recipe we need:

tidy(estimated_recipe, number = 2)
## # A tibble: 22 × 3
##   terms        retained           id   
##   <chr>        <chr>              <chr>
## 1 Neighborhood North_Ames         my_id
## 2 Neighborhood College_Creek      my_id
## 3 Neighborhood Old_Town           my_id
## 4 Neighborhood Edwards            my_id
## 5 Neighborhood Somerset           my_id
## 6 Neighborhood Northridge_Heights my_id
## # ℹ 16 more rows
…
