Modelado Ordenado con R - 9 Judging Model Effectiveness
…
In the remainder of this chapter, we will discuss general approaches for evaluating models via empirical validation. These approaches are grouped by the nature of the outcome data: purely numeric, binary classes, and three or more class levels.

9.2 Regression Metrics

Recall from Section 6.3 that tidymodels prediction functions produce tibbles with columns for the predicted values. These columns have consistent names, and the functions in the yardstick package that produce performance metrics have consistent interfaces. The functions are data frame-based, as opposed to vector-based, with the general syntax of:

function(data, truth, ...)

where data is a data frame or tibble and truth is the column with the observed outcome values. The ellipses or other arguments are used to specify the column(s) containing the predictions.

To illustrate, let’s take the model from Section 8.8. This model lm_wflow_fit combines a linear regression model with a predictor set supplemented with an interaction and spline functions for longitude and latitude. It was created from a training set (named ames_train). Although we do not advise using the test set at this juncture of the modeling process, it will be used here to illustrate functionality and syntax. The data frame ames_test consists of 588 properties. To start, let’s produce predictions:

ames_test_res <- predict(lm_fit, new_data = ames_test %>% select(-Sale_Price))
ames_test_res
## # A tibble: 588 × 1
##   .pred
##   <dbl>
## 1  5.07
## 2  5.31
## 3  5.28
## 4  5.33
## 5  5.30
## 6  5.24
## # ℹ 582 more rows

The predicted numeric outcome from the regression model is named .pred. Let’s match the predicted values with their corresponding observed outcome values:

ames_test_res <- bind_cols(ames_test_res, ames_test %>% select(Sale_Price))
ames_test_res
## # A tibble: 588 × 2
##   .pred Sale_Price
##   <dbl>      <dbl>
## 1  5.07       5.02
## 2  5.31       5.39
## 3  5.28       5.28
## 4  5.33       5.28
## 5  5.30       5.28
## 6  5.24       5.26
## # ℹ 582 more rows
…
This tidy data format stacks the metrics vertically. The root mean squared error and mean absolute error metrics are both on the scale of the outcome (so log10(Sale_Price) for our example) and measure the difference between the predicted and observed values. The value for \(R^2\) measures the squared correlation between the predicted and observed values, so values closer to one are better.

The yardstick package does not contain a function for adjusted \(R^2\). This modification of the coefficient of determination is commonly used when the same data used to fit the model are used to evaluate the model. This metric is not fully supported in tidymodels because it is always a better approach to compute performance on a separate data set than the one used to fit the model.

9.3 Binary Classification Metrics

To illustrate other ways to measure model performance, we will switch to a different example. The modeldata package (another one of the tidymodels packages) contains example predictions from a test data set with two classes (“Class1” and “Class2”):

data(two_class_example)
tibble(two_class_example)
## # A tibble: 500 × 4
##   truth   Class1   Class2 predicted
##   <fct>    <dbl>    <dbl> <fct>    
## 1 Class2 0.00359 0.996    Class2   
## 2 Class1 0.679   0.321    Class1   
## 3 Class2 0.111   0.889    Class2   
## 4 Class1 0.735   0.265    Class1   
## 5 Class2 0.0162  0.984    Class2   
## 6 Class1 0.999   0.000725 Class1   
## # ℹ 494 more rows
…
f_meas(two_class_example, truth, predicted, event_level = "second")
## # A tibble: 1 × 3
##   .metric .estimator .estimate
##   <chr>   <chr>          <dbl>
## 1 f_meas  binary         0.826

In this output, the .estimator value of “binary” indicates that the standard formula for binary classes will be used.

There are numerous classification metrics that use the predicted probabilities as inputs rather than the hard class predictions. For example, the receiver operating characteristic (ROC) curve computes the sensitivity and specificity over a continuum of different event thresholds. The predicted class column is not used. There are two yardstick functions for this method: roc_curve() computes the data points that make up the ROC curve and roc_auc() computes the area under the curve.

The interfaces to these types of metric functions use the ... argument placeholder to pass in the appropriate class probability column. For two-class problems, the probability column for the event of interest is passed into the function:

two_class_curve <- roc_curve(two_class_example, truth, Class1)
two_class_curve
## # A tibble: 502 × 3
##   .threshold specificity sensitivity
##        <dbl>       <dbl>       <dbl>
## 1 -Inf           0                 1
## 2    1.79e-7     0                 1
## 3    4.50e-6     0.00413           1
## 4    5.81e-6     0.00826           1
## 5    5.92e-6     0.0124            1
## 6    1.22e-5     0.0165            1
## # ℹ 496 more rows
…
Figure 9.3: Example ROC curve

If the curve was close to the diagonal line, then the model’s predictions would be no better than random guessing. Since the curve is up in the top, left-hand corner, we see that our model performs well at different thresholds.

There are a number of other functions that use probability estimates, including gain_curve(), lift_curve(), and pr_curve().

9.4 Multiclass Classification Metrics

What about data with three or more classes? To demonstrate, let’s explore a different example data set that has four classes:

data(hpc_cv)
tibble(hpc_cv)
## # A tibble: 3,467 × 7
##   obs   pred     VF      F       M          L Resample
##   <fct> <fct> <dbl>  <dbl>   <dbl>      <dbl> <chr>   
## 1 VF    VF    0.914 0.0779 0.00848 0.0000199  Fold01  
## 2 VF    VF    0.938 0.0571 0.00482 0.0000101  Fold01  
## 3 VF    VF    0.947 0.0495 0.00316 0.00000500 Fold01  
## 4 VF    VF    0.929 0.0653 0.00579 0.0000156  Fold01  
## 5 VF    VF    0.942 0.0543 0.00381 0.00000729 Fold01  
## 6 VF    VF    0.951 0.0462 0.00272 0.00000384 Fold01  
## # ℹ 3,461 more rows
…
Macro-weighted averaging is also available as an option for applying this metric to a multiclass outcome:

roc_auc(hpc_cv, obs, VF, F, M, L, estimator = "macro_weighted")
## # A tibble: 1 × 3
##   .metric .estimator     .estimate
##   <chr>   <chr>              <dbl>
## 1 roc_auc macro_weighted     0.868

Finally, all of these performance metrics can be computed using dplyr groupings. Recall that these data have a column for the resampling groups. We haven’t yet discussed resampling in detail, but notice how we can pass a grouped data frame to the metric function to compute the metrics for each group:

hpc_cv %>% 
  group_by(Resample) %>% 
  accuracy(obs, pred)
## # A tibble: 10 × 4
##   Resample .metric  .estimator .estimate
##   <chr>    <chr>    <chr>          <dbl>
## 1 Fold01   accuracy multiclass     0.726
## 2 Fold02   accuracy multiclass     0.712
## 3 Fold03   accuracy multiclass     0.758
## 4 Fold04   accuracy multiclass     0.712
## 5 Fold05   accuracy multiclass     0.712
## 6 Fold06   accuracy multiclass     0.697
## # ℹ 4 more rows
…
