Modelado Ordenado con R - 13 Grid Search
…
This output indicates that the parameter objects are complete and prints their default ranges. These values will be used to demonstrate how to create different types of parameter grids.

Regular grids

Regular grids are combinations of separate sets of parameter values. First, the user creates a distinct set of values for each parameter. The number of possible values need not be the same for each parameter. The tidyr function crossing() is one way to create a regular grid:

crossing(
  hidden_units = 1:3,
  penalty = c(0.0, 0.1),
  epochs = c(100, 200)
)
## # A tibble: 12 × 3
##   hidden_units penalty epochs
##          <int>   <dbl>  <dbl>
## 1            1     0      100
## 2            1     0      200
## 3            1     0.1    100
## 4            1     0.1    200
## 5            2     0      100
## 6            2     0      200
## # ℹ 6 more rows

The parameter object knows the ranges of the parameters. The dials package contains a set of grid_*() functions that take the parameter object as input to produce different types of grids. For example:

grid_regular(mlp_param, levels = 2)
## # A tibble: 8 × 3
##   hidden_units      penalty epochs
##          <int>        <dbl>  <int>
## 1            1 0.0000000001     10
## 2           10 0.0000000001     10
## 3            1 1                10
## 4           10 1                10
## 5            1 0.0000000001   1000
## 6           10 0.0000000001   1000
## # ℹ 2 more rows

The levels argument is the number of levels per parameter to create. It can also take a named vector of values:

mlp_param %>% 
  grid_regular(levels = c(hidden_units = 3, penalty = 2, epochs = 2))
## # A tibble: 12 × 3
##   hidden_units      penalty epochs
##          <int>        <dbl>  <int>
## 1            1 0.0000000001     10
## 2            5 0.0000000001     10
## 3           10 0.0000000001     10
## 4            1 1                10
## 5            5 1                10
## 6           10 1                10
## # ℹ 6 more rows
…
To start, let’s evaluate a regular grid with three levels across the resamples:

roc_res <- metric_set(roc_auc)
set.seed(1305)
mlp_reg_tune <-
  mlp_wflow %>%
  tune_grid(
    cell_folds,
    grid = mlp_param %>% grid_regular(levels = 3),
    metrics = roc_res
  )
mlp_reg_tune
## # Tuning results
## # 10-fold cross-validation 
## # A tibble: 10 × 4
##   splits             id     .metrics          .notes          
##   <list>             <chr>  <list>            <list>          
## 1 <split [1817/202]> Fold01 <tibble [81 × 8]> <tibble [0 × 3]>
## 2 <split [1817/202]> Fold02 <tibble [81 × 8]> <tibble [0 × 3]>
## 3 <split [1817/202]> Fold03 <tibble [81 × 8]> <tibble [0 × 3]>
## 4 <split [1817/202]> Fold04 <tibble [81 × 8]> <tibble [0 × 3]>
## 5 <split [1817/202]> Fold05 <tibble [81 × 8]> <tibble [0 × 3]>
## 6 <split [1817/202]> Fold06 <tibble [81 × 8]> <tibble [0 × 3]>
## # ℹ 4 more rows
…
set.seed(1306)
mlp_sfd_tune <-
  mlp_wflow %>%
  tune_grid(
    cell_folds,
    grid = 20,
    # Pass in the parameter object to use the appropriate range: 
    param_info = mlp_param,
    metrics = roc_res
  )
mlp_sfd_tune
## # Tuning results
## # 10-fold cross-validation 
## # A tibble: 10 × 4
##   splits             id     .metrics          .notes          
##   <list>             <chr>  <list>            <list>          
## 1 <split [1817/202]> Fold01 <tibble [20 × 8]> <tibble [0 × 3]>
## 2 <split [1817/202]> Fold02 <tibble [20 × 8]> <tibble [0 × 3]>
## 3 <split [1817/202]> Fold03 <tibble [20 × 8]> <tibble [0 × 3]>
## 4 <split [1817/202]> Fold04 <tibble [20 × 8]> <tibble [0 × 3]>
## 5 <split [1817/202]> Fold05 <tibble [20 × 8]> <tibble [0 × 3]>
## 6 <split [1817/202]> Fold06 <tibble [20 × 8]> <tibble [0 × 3]>
## # ℹ 4 more rows
…
