Modelado Ordenado con R - 15 Screening Many Models
…
The option column now contains all of the options that we used in the workflow_map() call. This makes our results reproducible. In the result columns, the “tune[+]” and “rsmp[+]” notations mean that the object had no issues. A value such as “tune[x]” occurs if all of the models failed for some reason.

There are a few convenience functions for examining results such as grid_results. The rank_results() function will order the models by some performance metric. By default, it uses the first metric in the metric set (RMSE in this instance). Let’s filter() to look only at RMSE:

grid_results %>% 
   rank_results() %>% 
   filter(.metric == "rmse") %>% 
   select(model, .config, rmse = mean, rank)
## # A tibble: 252 × 4
##   model      .config                rmse  rank
##   <chr>      <chr>                 <dbl> <int>
## 1 boost_tree Preprocessor1_Model04  4.25     1
## 2 boost_tree Preprocessor1_Model06  4.29     2
## 3 boost_tree Preprocessor1_Model13  4.31     3
## 4 boost_tree Preprocessor1_Model14  4.39     4
## 5 boost_tree Preprocessor1_Model16  4.46     5
## 6 boost_tree Preprocessor1_Model03  4.47     6
## # ℹ 246 more rows
…
