Modelado Ordenado con R - 17 Encoding Categorical Data
…
As detailed in Section 16.4, we can prep() our recipe to fit or estimate parameters for the preprocessing transformations using training data. We can then tidy() this prepared recipe to see the results:

glm_estimates <-
  prep(ames_glm) %>%
  tidy(number = 2)

glm_estimates
## # A tibble: 29 × 4
##   level              value terms        id               
##   <chr>              <dbl> <chr>        <chr>            
## 1 North_Ames          5.15 Neighborhood lencode_glm_ZsXdy
## 2 College_Creek       5.29 Neighborhood lencode_glm_ZsXdy
## 3 Old_Town            5.07 Neighborhood lencode_glm_ZsXdy
## 4 Edwards             5.09 Neighborhood lencode_glm_ZsXdy
## 5 Somerset            5.35 Neighborhood lencode_glm_ZsXdy
## 6 Northridge_Heights  5.49 Neighborhood lencode_glm_ZsXdy
## # ℹ 23 more rows
…
Let’s prep() and tidy() this recipe to see the results:

mixed_estimates <-
  prep(ames_mixed) %>%
  tidy(number = 2)

mixed_estimates
## # A tibble: 29 × 4
##   level              value terms        id                 
##   <chr>              <dbl> <chr>        <chr>              
## 1 North_Ames          5.15 Neighborhood lencode_mixed_SC9hi
## 2 College_Creek       5.29 Neighborhood lencode_mixed_SC9hi
## 3 Old_Town            5.07 Neighborhood lencode_mixed_SC9hi
## 4 Edwards             5.10 Neighborhood lencode_mixed_SC9hi
## 5 Somerset            5.35 Neighborhood lencode_mixed_SC9hi
## 6 Northridge_Heights  5.49 Neighborhood lencode_mixed_SC9hi
## # ℹ 23 more rows
…
Notice in Figure 17.2 that most estimates for neighborhood effects are about the same when we compare pooling to no pooling. However, the neighborhoods with the fewest homes in them have been pulled (either up or down) toward the mean effect. When we use pooling, we shrink the effect estimates toward the mean because we don’t have as much evidence about the price in those neighborhoods.

17.4 Feature Hashing

Traditional dummy variables as described in Section 8.4.1 require that all of the possible categories be known to create a full set of numeric features. Feature hashing methods (Weinberger et al. 2009) also create dummy variables, but only consider the value of the category to assign it to a predefined pool of dummy variables. Let’s look at the Neighborhood values in Ames again and use the rlang::hash() function to understand more:

library(rlang)

ames_hashed <-
  ames_train %>%
  mutate(Hash = map_chr(Neighborhood, hash))

ames_hashed %>%
  select(Neighborhood, Hash)
## # A tibble: 2,342 × 2
##   Neighborhood    Hash                            
##   <fct>           <chr>                           
## 1 North_Ames      076543f71313e522efe157944169d919
## 2 North_Ames      076543f71313e522efe157944169d919
## 3 Briardale       b598bec306983e3e68a3118952df8cf0
## 4 Briardale       b598bec306983e3e68a3118952df8cf0
## 5 Northpark_Villa 6af95b5db968bf393e78188a81e0e1e4
## 6 Northpark_Villa 6af95b5db968bf393e78188a81e0e1e4
## # ℹ 2,336 more rows

If we input Briardale to this hashing function, we will always get the same output. The neighborhoods in this case are called the “keys,” while the outputs are the “hashes.”

A hashing function takes an input of variable size and maps it to an output of fixed size. Hashing functions are commonly used in cryptography and databases.

The rlang::hash() function generates a 128-bit hash, which means there are 2^128 possible hash values. This is great for some applications but doesn’t help with feature hashing of high cardinality variables (variables with many levels). In feature hashing, the number of possible hashes is a hyperparameter and is set by the model developer through computing the modulo of the integer hashes. We can get sixteen possible hash values by using Hash %% 16:

ames_hashed %>%
  ## first make a smaller hash for integers that R can handle
  mutate(Hash = strtoi(substr(Hash, 26, 32), base = 16L),  
         ## now take the modulo
         Hash = Hash %% 16) %>%
  select(Neighborhood, Hash)
## # A tibble: 2,342 × 2
##   Neighborhood     Hash
##   <fct>           <dbl>
## 1 North_Ames          9
## 2 North_Ames          9
## 3 Briardale           0
## 4 Briardale           0
## 5 Northpark_Villa     4
## 6 Northpark_Villa     4
## # ℹ 2,336 more rows
…
