Modelado Ordenado con R - 21 Inferential Analysis
…
From here, we compute a confidence interval for this mean by creating the bootstrap distribution via generate(); the same statistic is computed for each resampled version of the data:

set.seed(2101)
bootstrapped <- 
  bioChemists %>%
  specify(art ~ fem)  %>%
  generate(reps = 2000, type = "bootstrap") %>%
  calculate(stat = "diff in means", order = c("Men", "Women"))
bootstrapped
## Response: art (numeric)
## Explanatory: fem (factor)
## # A tibble: 2,000 × 2
##   replicate  stat
##       <int> <dbl>
## 1         1 0.467
## 2         2 0.107
## 3         3 0.467
## 4         4 0.308
## 5         5 0.369
## 6         6 0.428
## # ℹ 1,994 more rows
…
If we require a p-value, the infer package can compute the value via a permutation test, shown in the following code. The syntax is very similar to the bootstrapping code we used earlier. We add a hypothesize() verb to state the type of assumption to test and the generate() call contains an option to shuffle the data.

set.seed(2102)
permuted <- 
  bioChemists %>%
  specify(art ~ fem)  %>%
  hypothesize(null = "independence") %>%
  generate(reps = 2000, type = "permute") %>%
  calculate(stat = "diff in means", order = c("Men", "Women"))
permuted
## Response: art (numeric)
## Explanatory: fem (factor)
## Null Hypothesis: independence
## # A tibble: 2,000 × 2
##   replicate     stat
##       <int>    <dbl>
## 1         1  0.201  
## 2         2 -0.133  
## 3         3  0.109  
## 4         4 -0.195  
## 5         5 -0.00128
## 6         6 -0.102  
## # ℹ 1,994 more rows
…
First, we create the 4,000 model fits:

zip_form <- art ~ fem + mar + kid5 + ment | fem + mar + kid5 + phd + ment
glm_form <- art ~ fem + mar + kid5 + ment

set.seed(2104)
bootstrap_models <-
  bootstraps(bioChemists, times = 2000, apparent = TRUE) %>%
  mutate(
    glm = map(splits, ~ fit(log_lin_spec,       glm_form, data = analysis(.x))),
    zip = map(splits, ~ fit(zero_inflated_spec, zip_form, data = analysis(.x)))
  )
bootstrap_models
## # Bootstrap sampling with apparent sample 
## # A tibble: 2,001 × 4
##   splits            id            glm      zip     
##   <list>            <chr>         <list>   <list>  
## 1 <split [915/355]> Bootstrap0001 <fit[+]> <fit[+]>
## 2 <split [915/333]> Bootstrap0002 <fit[+]> <fit[+]>
## 3 <split [915/337]> Bootstrap0003 <fit[+]> <fit[+]>
## 4 <split [915/344]> Bootstrap0004 <fit[+]> <fit[+]>
## 5 <split [915/351]> Bootstrap0005 <fit[+]> <fit[+]>
## 6 <split [915/354]> Bootstrap0006 <fit[+]> <fit[+]>
## # ℹ 1,995 more rows
…
